<?xml version="1.0" standalone="no"?>
<!DOCTYPE svg PUBLIC "-//W3C//DTD SVG 20010904//EN"
 "http://www.w3.org/TR/2001/REC-SVG-20010904/DTD/svg10.dtd">
<svg version="1.0" xmlns="http://www.w3.org/2000/svg"
 width="260.000000pt" height="260.000000pt" viewBox="0 0 260.000000 260.000000"
 preserveAspectRatio="xMidYMid meet">
<metadata>
Created by potrace 1.11, written by Peter Selinger 2001-2013
</metadata>
<g transform="translate(0.000000,260.000000) scale(0.100000,-0.100000)"
fill="#000000" stroke="none">
<path d="M698 1815 c-2 -2 -30 -5 -63 -8 -33 -3 -60 -6 -60 -7 0 -1 -13 -4
-30 -6 -62 -8 -95 -17 -95 -25 0 -5 -3 -8 -7 -8 -5 1 -10 0 -13 -1 -3 -1 -13
-3 -22 -5 -33 -6 -96 -70 -104 -105 0 -3 -6 -18 -13 -35 -7 -16 -28 -70 -47
-120 -19 -49 -40 -101 -46 -115 -6 -14 -12 -27 -12 -30 -3 -15 -51 -136 -56
-140 -15 -13 -10 -67 9 -87 11 -11 17 -23 15 -26 -3 -3 7 -14 23 -23 15 -10
30 -21 33 -24 5 -5 21 -10 45 -14 6 -1 16 -5 23 -9 7 -5 12 -3 12 4 0 9 3 9
14 0 7 -6 21 -8 31 -5 13 5 16 3 13 -7 -5 -16 -30 -19 -40 -4 -5 6 -11 5 -17
-4 -6 -9 -11 -10 -15 -3 -4 6 -13 9 -20 6 -8 -3 -17 0 -21 6 -5 8 -11 7 -22
-2 -8 -7 -30 -11 -48 -9 -25 2 -37 -3 -49 -21 -15 -21 -15 -23 -1 -26 10 -2
14 -10 11 -18 -3 -8 1 -14 9 -14 9 0 12 -7 9 -22 -3 -13 -6 -29 -6 -35 -1 -7
-6 -13 -11 -13 -6 0 -7 -3 -4 -6 3 -4 2 -15 -4 -25 -7 -15 -6 -21 5 -25 8 -3
12 -12 9 -20 -5 -12 3 -15 43 -12 42 3 49 6 52 26 2 14 8 20 15 15 7 -4 5 2
-3 12 -12 15 -12 17 -1 10 11 -6 13 -4 8 7 -3 9 -3 19 1 23 4 4 8 10 8 13 11
52 34 70 34 26 0 -16 -4 -23 -11 -18 -7 4 -10 1 -7 -7 3 -8 -1 -31 -8 -51 -11
-31 -10 -36 1 -32 7 3 16 0 21 -7 5 -8 3 -10 -7 -4 -10 5 -11 5 -4 -3 10 -11
34 -15 72 -13 18 1 25 11 36 48 13 45 14 46 21 20 4 -16 4 -32 1 -38 -4 -5 -1
-8 7 -7 7 2 12 -3 11 -9 -2 -8 9 -13 30 -13 18 0 39 -6 46 -12 11 -11 12 -10
6 1 -6 11 -3 13 12 9 17 -4 19 -1 15 21 -3 14 -10 29 -16 33 -7 5 -6 8 4 8 11
0 12 2 2 8 -9 6 -7 13 10 28 18 15 20 15 9 2 -10 -13 -10 -18 -2 -18 7 0 10
-4 7 -8 -3 -5 7 -23 22 -41 26 -32 29 -33 97 -31 99 3 105 3 105 13 0 14 28
37 45 37 14 0 16 -6 11 -27 -5 -22 -4 -25 4 -13 9 11 13 12 17 3 2 -8 22 -13
45 -13 37 0 39 -1 27 -17 -12 -16 -12 -17 2 -6 9 7 20 9 24 5 5 -4 5 -1 1 6
-5 8 2 12 23 12 17 0 31 5 31 12 0 6 7 3 15 -8 14 -19 14 -19 9 1 -4 15 0 21
14 22 14 1 18 -3 15 -15 -3 -15 3 -17 43 -13 40 3 46 1 41 -13 -3 -8 -3 -18 2
-20 4 -3 8 7 8 22 3 51 7 72 16 72 5 0 6 7 3 16 -3 8 -2 13 3 9 5 -3 12 -19
16 -35 4 -17 11 -30 17 -30 6 0 8 -7 5 -15 -4 -8 -1 -17 5 -21 7 -4 8 -3 4 4
-5 9 7 12 42 12 36 0 52 4 56 16 3 8 2 12 -3 9 -10 -6 -26 33 -17 42 3 3 -1
12 -9 20 -20 19 -20 57 -1 50 10 -4 13 -1 10 7 -6 14 22 30 37 21 5 -4 6 1 3
9 -4 10 -1 16 10 16 10 0 13 6 9 16 -4 11 -8 12 -13 4 -5 -8 -9 -4 -13 9 -3
12 -1 19 3 16 5 -3 12 -1 15 5 5 8 12 7 23 -2 13 -11 14 -11 8 1 -6 9 -5 12 5
9 8 -3 13 -10 12 -15 -1 -5 4 -10 12 -10 7 0 11 5 9 12 -3 6 5 11 16 12 16 1
18 -2 11 -15 -5 -9 -11 -30 -14 -47 -3 -16 -10 -42 -16 -57 -6 -16 -9 -28 -6
-28 2 0 -3 -12 -11 -27 -12 -25 -12 -29 2 -40 8 -6 15 -15 14 -20 0 -4 18 -9
41 -11 25 -2 39 1 35 7 -4 5 -1 13 5 17 8 4 9 3 5 -5 -4 -6 0 -14 8 -17 9 -3
13 -10 10 -15 -3 -5 0 -8 8 -7 7 2 12 -3 10 -10 -1 -8 2 -11 8 -7 8 5 7 11 -1
21 -9 12 -6 14 22 14 19 1 45 7 59 15 35 20 43 18 30 -6 -7 -11 -9 -23 -6 -27
3 -3 6 0 6 6 0 8 27 11 83 9 54 -1 82 -6 82 -14 0 -6 3 -15 7 -19 4 -3 6 3 3
15 -4 19 0 21 61 20 35 -1 64 -5 64 -10 0 -5 5 -9 10 -9 6 0 9 6 8 13 -2 6 2
11 8 10 47 -9 83 -9 77 0 -4 6 2 8 15 5 13 -4 23 0 26 9 4 9 13 13 22 9 12 -5
15 -2 10 11 -4 10 4 6 20 -10 17 -17 38 -27 55 -27 17 0 29 -5 29 -12 0 -8 3
-9 8 -3 10 14 72 19 72 6 0 -6 4 -11 10 -11 5 0 6 7 3 17 -4 9 -2 14 4 10 5
-3 16 2 25 11 8 9 24 23 36 31 17 12 19 18 9 30 -10 12 -9 14 5 8 10 -3 20 -1
24 5 4 6 3 8 -3 5 -6 -4 -21 2 -33 13 -13 11 -19 20 -14 20 5 0 2 5 -6 10 -11
7 -7 9 15 7 27 -3 30 -1 30 24 0 15 -3 26 -6 24 -6 -4 -39 31 -39 41 0 3 11 3
24 0 14 -3 28 -2 31 4 3 6 -1 7 -9 4 -9 -3 -16 -2 -16 4 0 5 6 12 13 15 35 13
-21 110 -68 119 -25 5 -34 -5 -15 -17 6 -3 10 -12 10 -18 0 -7 -5 -4 -11 5 -5
10 -17 15 -27 12 -10 -4 -13 -3 -6 3 6 4 13 16 17 26 4 10 12 15 18 11 8 -5 9
-2 1 12 -7 13 -6 26 4 46 8 15 12 28 8 28 -4 0 -1 6 5 13 6 8 8 17 4 20 -3 4
-1 7 5 7 6 0 12 10 14 23 2 12 9 21 15 20 7 -2 10 4 7 12 -4 9 -1 21 5 29 6 7
8 16 4 19 -3 4 -1 7 6 7 7 0 10 4 7 9 -7 10 16 71 26 71 4 0 8 11 8 24 0 14 5
28 10 31 6 4 8 11 5 16 -4 5 -1 9 5 9 6 0 8 5 5 10 -3 5 -1 10 5 10 6 0 8 5 5
10 -3 6 -2 10 4 10 6 0 8 6 5 14 -3 8 0 17 5 21 6 3 8 11 5 17 -5 8 -1 9 11 4
14 -5 15 -4 7 6 -7 9 -6 20 3 38 21 38 19 69 -4 63 -15 -4 -18 0 -14 19 l4 23
-192 0 -193 0 -62 -90 c-34 -50 -69 -98 -78 -107 -9 -10 -16 -22 -16 -26 0 -4
-9 -14 -19 -21 -11 -9 -17 -21 -13 -30 5 -14 3 -14 -10 -3 -13 10 -18 10 -24
1 -5 -8 -3 -9 6 -4 9 6 10 2 5 -16 -12 -40 -21 -41 -20 -1 0 20 4 40 10 44 7
5 6 8 -1 8 -12 0 -12 29 0 48 4 6 4 12 0 12 -3 0 0 8 7 17 8 9 9 14 3 10 -7
-4 -14 0 -18 8 -3 8 0 17 6 21 7 5 8 2 3 -6 -6 -9 -4 -11 4 -5 8 5 9 11 3 17
-5 5 -8 25 -5 44 4 28 2 34 -14 34 -14 0 -19 7 -19 22 1 23 1 23 -182 23 -114
0 -186 -3 -191 -10 -4 -5 -18 -37 -31 -70 -13 -33 -27 -65 -32 -71 -4 -6 -5
-14 -1 -17 3 -4 2 -7 -3 -7 -17 0 -33 22 -27 36 3 8 1 14 -4 14 -10 0 -38 50
-35 63 1 4 -1 6 -5 5 -5 0 -24 6 -44 15 -37 16 -57 21 -143 36 -44 8 -471 13
-478 6z m210 -168 c-6 -12 -11 -23 -10 -24 7 -11 0 -23 -10 -17 -9 5 -9 2 1
-9 9 -12 10 -17 2 -17 -7 0 -10 -4 -7 -9 4 -5 0 -12 -6 -14 -7 -3 -1 -6 15 -6
27 -1 33 -18 12 -33 -6 -4 -2 -8 8 -8 9 0 17 -4 17 -10 0 -5 5 -10 11 -10 5 0
8 3 6 8 -3 4 6 8 19 8 13 1 24 -3 24 -10 0 -6 5 -4 10 4 9 13 10 13 10 0 0 -9
-3 -20 -7 -26 -5 -5 2 2 15 16 19 21 24 23 32 10 9 -13 10 -13 10 0 1 9 6 6
14 -9 8 -15 16 -20 20 -12 4 6 2 11 -5 11 -10 0 -10 3 0 13 11 10 14 9 18 -2
5 -11 7 -11 14 0 7 11 9 11 9 -1 0 -9 -3 -20 -7 -26 -5 -5 2 2 15 16 19 21 24
23 32 10 9 -13 10 -13 10 0 0 13 2 13 9 0 6 -8 7 -18 5 -22 -3 -4 -1 -8 5 -8
5 0 13 5 16 10 3 6 1 10 -6 10 -10 0 -10 3 -1 12 9 9 15 8 28 -8 8 -10 13 -13
9 -6 -3 6 -3 12 2 13 4 0 16 2 25 4 10 2 20 -1 24 -6 3 -5 10 -9 15 -9 6 0 8
4 4 9 -3 6 4 8 15 6 11 -2 20 0 20 6 0 5 8 9 18 9 14 0 15 2 2 10 -13 8 -13
11 -1 19 7 5 10 14 7 20 -4 6 -2 11 4 11 6 0 8 5 5 10 -3 6 -1 10 5 10 6 0 8
5 5 10 -3 6 -2 10 4 10 6 0 8 7 4 16 -5 14 -3 14 15 3 18 -11 19 -15 7 -22 -9
-4 -13 -12 -10 -18 4 -5 1 -9 -4 -9 -6 0 -10 -3 -10 -7 4 -18 -14 -73 -23 -73
-6 0 -8 -6 -5 -14 3 -8 -1 -20 -8 -26 -8 -7 -13 -15 -10 -19 2 -4 -2 -18 -9
-32 -7 -13 -11 -30 -8 -37 2 -6 -1 -12 -7 -12 -6 0 -10 -3 -9 -7 4 -15 -15
-58 -31 -71 -12 -10 -12 -12 -1 -6 10 5 8 -1 -5 -16 -11 -13 -14 -20 -6 -15 9
5 8 0 -3 -17 -9 -14 -13 -28 -9 -33 5 -4 2 -4 -6 0 -11 6 -13 4 -8 -8 3 -9 2
-19 -3 -22 -10 -6 -35 -84 -31 -99 1 -5 -5 -6 -13 -3 -15 6 -16 -17 -1 -30 4
-4 5 -2 1 5 -5 8 0 11 15 9 23 -4 40 -27 19 -27 -6 0 -8 -5 -5 -11 4 -6 14 -8
24 -5 11 4 10 1 -4 -9 -11 -8 -25 -19 -32 -25 -15 -12 -46 -2 -40 15 3 6 -4
17 -14 23 -16 10 -21 10 -25 -2 -3 -8 -13 -12 -25 -9 -15 4 -20 -1 -25 -26 -9
-41 -32 -40 -25 2 0 4 -5 6 -11 5 -7 -2 -12 2 -11 7 4 25 -157 20 -165 -4 -3
-9 -8 -9 -19 0 -11 10 -13 10 -11 -1 6 -24 -18 -21 -30 4 -10 22 -9 24 9 21
10 -2 19 2 19 8 0 8 4 7 9 -2 8 -12 15 -13 33 -4 14 6 39 10 56 8 18 -1 32 1
32 5 0 3 7 7 15 7 8 0 12 -4 9 -8 -2 -5 8 -2 23 6 15 8 37 15 48 15 12 0 27 6
34 13 12 10 13 8 7 -8 l-6 -20 16 20 c8 11 20 19 25 17 5 -1 12 5 15 13 3 8
10 12 15 9 5 -3 9 0 9 6 0 6 5 8 12 4 7 -5 9 -2 5 8 -3 9 0 24 8 34 7 10 11
24 8 31 -3 7 1 21 8 29 8 9 14 22 14 28 1 6 7 23 14 38 16 30 7 73 -9 48 -10
-15 -12 -11 -14 24 -1 18 -12 19 -219 20 -206 1 -222 -1 -218 -26 0 -5 -4 -8
-9 -8 -5 0 -9 -3 -9 -7 1 -5 1 -10 -1 -13 -1 -3 -4 -16 -6 -30 -3 -14 -9 -27
-14 -28 -6 -2 -8 -8 -4 -13 3 -5 1 -9 -3 -9 -5 0 -10 -10 -10 -22 -3 -29 -30
-49 -65 -46 -28 2 -38 21 -18 33 6 4 8 11 5 16 -4 5 -1 9 4 9 6 0 10 3 9 8 -2
4 5 28 15 55 12 30 23 45 30 40 8 -4 7 -1 -1 9 -10 13 -10 18 1 29 7 8 14 18
14 22 2 21 36 97 42 93 4 -3 13 0 21 6 12 8 12 9 -2 4 -10 -3 -20 -1 -23 4 -4
6 -1 10 5 10 6 0 9 3 6 8 -2 4 3 23 12 42 8 19 16 38 17 43 2 4 4 10 5 15 1 4
2 10 1 15 -1 10 13 9 27 -3 7 -5 5 -2 -3 7 -12 14 -12 18 2 28 9 7 29 12 45
13 26 1 27 -1 16 -21z m697 -352 c0 -25 -4 -45 -10 -45 -5 0 -3 -5 5 -10 13
-9 13 -10 0 -10 -13 0 -13 -1 0 -10 11 -7 11 -10 2 -10 -8 0 -10 -5 -5 -12 4
-7 9 -29 9 -48 1 -19 2 -50 3 -67 0 -18 4 -32 9 -32 20 3 23 -3 11 -18 -8 -10
-9 -14 -2 -10 6 4 15 3 18 -3 4 -6 15 -8 25 -5 10 3 22 0 26 -6 5 -9 2 -10
-11 -5 -15 5 -16 4 -6 -8 9 -11 10 -20 2 -33 -9 -16 -12 -15 -11 2 1 3 -7 13
-16 23 -16 16 -38 19 -142 21 -19 1 -31 5 -27 11 3 6 0 10 -7 11 -10 0 -10 2
0 6 6 2 10 9 6 14 -3 5 0 9 6 9 6 0 9 4 6 8 -3 5 1 20 9 35 7 14 11 28 7 31
-3 3 0 6 6 6 7 0 11 3 10 8 -5 17 14 52 25 45 7 -4 5 2 -3 12 -14 17 -13 18 2
12 10 -3 20 -1 24 5 4 6 3 8 -4 4 -6 -3 -13 -2 -16 3 -4 5 -2 12 4 16 6 4 7
11 4 17 -5 8 -1 9 11 4 16 -6 16 -4 4 11 -12 14 -12 16 0 8 11 -6 13 -4 8 8
-3 10 -4 24 -1 32 11 28 20 15 19 -30z m429 -50 c-4 -8 -10 -15 -16 -15 -5 0
-6 -4 -3 -10 3 -5 2 -10 -4 -10 -5 0 -8 -8 -6 -17 4 -26 -14 -55 -30 -49 -8 3
-17 0 -21 -6 -4 -6 -3 -8 2 -5 6 3 16 2 24 -4 13 -7 13 -9 0 -10 -8 -1 -19 -1
-23 0 -5 1 -6 -3 -2 -9 3 -6 11 -7 17 -4 8 5 9 1 4 -12 -13 -33 -12 -39 7 -38
13 1 16 -3 12 -16 -4 -12 0 -20 12 -23 10 -3 -2 -4 -26 -4 -32 0 -48 -5 -57
-18 -12 -16 -18 -14 -16 6 0 3 -9 11 -20 18 -17 11 -20 11 -16 -1 4 -8 -3 -13
-18 -14 -20 -2 -21 0 -10 12 8 7 16 19 18 26 4 10 9 10 24 -2 15 -11 16 -11 7
0 -19 21 -16 32 16 65 15 17 34 41 40 54 9 17 19 21 34 17 19 -4 20 -3 6 7
-17 12 -16 14 22 56 22 25 31 27 23 6z m331 -115 c3 -5 1 -10 -4 -10 -6 0 -11
5 -11 10 0 6 2 10 4 10 3 0 8 -4 11 -10z m-51 -31 c-3 -5 -10 -7 -15 -3 -5 3
-7 10 -3 15 3 5 10 7 15 3 5 -3 7 -10 3 -15z m-29 -18 c-3 -5 2 -16 11 -25 8
-9 13 -20 9 -26 -3 -6 1 -7 9 -4 9 3 16 2 16 -3 0 -5 -11 -10 -26 -11 -18 -1
-23 2 -18 11 6 9 5 9 -8 0 -8 -7 -18 -10 -21 -6 -4 3 -7 1 -7 -5 0 -7 -3 -11
-7 -10 -17 6 -71 -25 -81 -45 -8 -17 -11 -18 -11 -5 -1 9 -6 18 -12 20 -6 2
-7 11 -2 23 8 21 43 27 55 10 5 -6 8 -5 8 2 0 7 7 10 15 7 13 -5 65 39 63 55
-1 12 2 21 8 21 3 0 3 -4 -1 -9z m52 -13 c-3 -8 -6 -5 -6 6 -1 11 2 17 5 13 3
-3 4 -12 1 -19z m64 -17 c-6 -10 -20 -21 -31 -24 -17 -4 -19 -3 -9 9 6 7 15
12 19 9 4 -3 10 2 14 10 3 8 8 15 11 15 3 0 1 -8 -4 -19z m-1977 -37 c3 -8 2
-12 -4 -9 -6 3 -10 10 -10 16 0 14 7 11 14 -7z m-31 -1 c-7 -2 -19 -2 -25 0
-7 3 -2 5 12 5 14 0 19 -2 13 -5z m1737 -11 c0 -9 -7 -11 -22 -6 -13 4 -31 8
-40 8 -9 0 -15 3 -13 6 8 13 75 5 75 -8z m-1540 -3 c0 -6 -5 -7 -10 -4 -7 4
-8 -3 -4 -22 7 -25 6 -27 -10 -14 -9 8 -14 16 -11 19 2 3 -3 10 -12 17 -14 10
-11 12 16 13 17 0 31 -4 31 -9z m159 -12 c-13 -10 -18 -16 -12 -12 8 4 5 -15
-9 -52 -26 -70 -29 -75 -47 -64 -12 8 -12 14 0 43 7 18 14 35 14 38 0 3 4 11
9 19 6 9 3 17 -9 23 -24 14 -1 28 44 26 l33 -1 -23 -20z m241 -74 c25 -22 26
-33 2 -33 -10 0 -27 -7 -38 -15 -10 -8 -25 -15 -32 -15 -20 0 25 79 45 80 2 0
12 -8 23 -17z m904 8 c3 -5 0 -11 -8 -14 -15 -6 -26 1 -26 15 0 11 27 10 34
-1z m156 -11 c0 -11 -5 -20 -11 -20 -5 0 -8 -4 -5 -9 3 -5 -1 -12 -10 -15 -24
-9 -28 -7 -14 9 8 10 9 15 1 15 -6 0 -3 9 6 20 10 11 21 20 25 20 5 0 8 -9 8
-20z m-995 -35 c0 -10 -7 -20 -15 -22 -13 -4 -13 -3 0 6 8 6 10 11 4 11 -7 0
-14 6 -17 14 -4 9 0 13 11 12 9 -2 17 -11 17 -21z m1125 5 c0 -5 -5 -10 -11
-10 -5 0 -7 5 -4 10 3 6 8 10 11 10 2 0 4 -4 4 -10z m-654 -26 c1 -9 0 -13 -4
-10 -3 4 -7 14 -8 22 -1 9 0 13 4 10 3 -4 7 -14 8 -22z m245 3 c-10 -9 -11 -8
-5 6 3 10 9 15 12 12 3 -3 0 -11 -7 -18z m99 -12 c0 -8 -4 -15 -10 -15 -5 0
-7 7 -4 15 4 8 8 15 10 15 2 0 4 -7 4 -15z"/>
<path d="M876 1633 c-6 -14 -5 -15 5 -6 7 7 10 15 7 18 -3 3 -9 -2 -12 -12z"/>
<path d="M816 1562 c-3 -5 1 -9 9 -9 8 0 15 4 15 9 0 4 -4 8 -9 8 -6 0 -12 -4
-15 -8z"/>
<path d="M719 1308 c-5 -18 -6 -38 -1 -34 7 8 12 36 6 36 -2 0 -4 -1 -5 -2z"/>
<path d="M692 1236 c1 -14 5 -23 9 -20 7 4 0 44 -7 44 -2 0 -3 -11 -2 -24z"/>
<path d="M672 1191 c-11 -7 -11 -9 0 -14 9 -3 15 1 15 9 0 8 -1 14 -1 14 -1 0
-7 -4 -14 -9z"/>
<path d="M1038 1023 c7 -3 16 -2 19 1 4 3 -2 6 -13 5 -11 0 -14 -3 -6 -6z"/>
<path d="M1570 1179 c0 -5 5 -7 10 -4 6 3 10 8 10 11 0 2 -4 4 -10 4 -5 0 -10
-5 -10 -11z"/>
<path d="M1516 1098 c3 -5 10 -6 15 -3 13 9 11 12 -6 12 -8 0 -12 -4 -9 -9z"/>
<path d="M1913 1092 c-17 -13 -20 -20 -12 -32 9 -12 10 -12 5 4 -5 14 -2 17
11 12 10 -4 14 -4 10 0 -4 4 -2 13 4 21 15 18 9 16 -18 -5z"/>
<path d="M936 883 c-6 -14 -5 -15 5 -6 7 7 10 15 7 18 -3 3 -9 -2 -12 -12z"/>
<path d="M2526 1638 c3 -5 10 -6 15 -3 13 9 11 12 -6 12 -8 0 -12 -4 -9 -9z"/>
<path d="M2435 1461 c-3 -5 -2 -12 3 -15 5 -3 9 1 9 9 0 17 -3 19 -12 6z"/>
<path d="M2416 1373 c-6 -14 -5 -15 5 -6 7 7 10 15 7 18 -3 3 -9 -2 -12 -12z"/>
<path d="M2410 1339 c0 -5 5 -7 10 -4 6 3 10 8 10 11 0 2 -4 4 -10 4 -5 0 -10
-5 -10 -11z"/>
<path d="M2340 1211 c0 -6 4 -13 10 -16 6 -3 7 1 4 9 -7 18 -14 21 -14 7z"/>
<path d="M2430 919 c0 -5 5 -7 10 -4 6 3 10 8 10 11 0 2 -4 4 -10 4 -5 0 -10
-5 -10 -11z"/>
<path d="M2395 800 c-16 -7 -17 -9 -3 -9 9 -1 20 4 23 9 7 11 7 11 -20 0z"/>
<path d="M390 770 c13 -24 17 -25 17 -5 0 8 -6 16 -14 19 -11 4 -11 1 -3 -14z"/>
<path d="M235 769 c-4 -6 -5 -12 -2 -15 2 -3 7 2 10 11 7 17 1 20 -8 4z"/>
<path d="M2135 771 c-3 -5 -2 -12 3 -15 5 -3 9 1 9 9 0 17 -3 19 -12 6z"/>
<path d="M736 753 c-6 -14 -5 -15 5 -6 7 7 10 15 7 18 -3 3 -9 -2 -12 -12z"/>
<path d="M975 751 c-3 -5 -2 -12 3 -15 5 -3 9 1 9 9 0 17 -3 19 -12 6z"/>
<path d="M1270 751 c0 -6 4 -13 10 -16 6 -3 7 1 4 9 -7 18 -14 21 -14 7z"/>
<path d="M1693 745 c0 -8 4 -12 9 -9 5 3 6 10 3 15 -9 13 -12 11 -12 -6z"/>
<path d="M1730 751 c0 -6 4 -13 10 -16 6 -3 7 1 4 9 -7 18 -14 21 -14 7z"/>
<path d="M530 739 c0 -5 5 -7 10 -4 6 3 10 8 10 11 0 2 -4 4 -10 4 -5 0 -10
-5 -10 -11z"/>
<path d="M655 740 c3 -5 8 -10 11 -10 2 0 4 5 4 10 0 6 -5 10 -11 10 -5 0 -7
-4 -4 -10z"/>
<path d="M1055 740 c-3 -5 -1 -10 4 -10 6 0 11 5 11 10 0 6 -2 10 -4 10 -3 0
-8 -4 -11 -10z"/>
<path d="M1610 739 c0 -5 5 -7 10 -4 6 3 10 8 10 11 0 2 -4 4 -10 4 -5 0 -10
-5 -10 -11z"/>
<path d="M2015 740 c3 -5 8 -10 11 -10 2 0 4 5 4 10 0 6 -5 10 -11 10 -5 0 -7
-4 -4 -10z"/>
<path d="M2255 740 c3 -5 8 -10 11 -10 2 0 4 5 4 10 0 6 -5 10 -11 10 -5 0 -7
-4 -4 -10z"/>
</g>
</svg>
